<svg width="13" height="13" viewBox="0 0 13 13" fill="none" xmlns="http://www.w3.org/2000/svg">
<mask id="mask0" mask-type="alpha" maskUnits="userSpaceOnUse" x="0" y="0" width="13" height="13">
<path fill-rule="evenodd" clip-rule="evenodd" d="M0.000244141 4.57764e-05H12.3247V12.3237H0.000244141V4.57764e-05Z" fill="white"/>
</mask>
<g mask="url(#mask0)">
<path fill-rule="evenodd" clip-rule="evenodd" d="M7.44205 2.93999C7.24475 2.94458 7.05128 2.96523 6.97863 3.17246C6.87005 3.48064 7.09869 3.55482 7.3304 3.59152C8.10963 3.71311 8.51952 4.16352 8.59675 4.92441C8.61816 5.13011 8.75122 5.29758 8.9554 5.27388C9.23681 5.24099 9.26205 4.99552 9.25363 4.76229C9.2674 3.90735 8.28246 2.92011 7.44205 2.93999ZM7.26693 1.49088C6.97252 1.45723 6.58252 1.32035 6.51369 1.72258C6.44028 2.14394 6.8754 2.10111 7.15528 2.16152C9.05099 2.57676 9.71169 3.25505 10.0237 5.09876C10.0696 5.3687 9.97781 5.78699 10.445 5.71741C10.7907 5.66464 10.666 5.30676 10.6943 5.09723C10.7089 3.32694 9.16263 1.71417 7.26693 1.49088ZM6.66663 0.660406C9.73769 1.12305 11.1539 2.55535 11.5447 5.58664C11.5814 5.86729 11.4736 6.28864 11.8819 6.29629C12.3079 6.30317 12.2054 5.88794 12.2077 5.60882C12.2452 2.75264 9.70558 0.105994 6.7561 0.00811158C6.53358 0.0394645 6.07246 -0.141771 6.04416 0.345347C6.02428 0.676465 6.41275 0.622935 6.66663 0.660406ZM11.3765 8.91693C11.8972 9.32835 12.5556 9.6717 12.2444 10.5343C11.9194 11.4305 10.8006 12.3336 9.84399 12.3237C9.7094 12.2885 9.44328 12.248 9.20393 12.1471C5.00416 10.3737 1.95222 7.46858 0.218634 3.29558C-0.362542 1.89693 0.24387 0.715465 1.70905 0.232935C1.97287 0.146523 2.22981 0.139641 2.48752 0.232935C3.11305 0.458523 4.69599 2.59282 4.73116 3.23211C4.75793 3.72076 4.4184 3.98764 4.0804 4.2117C3.44416 4.63611 3.44187 5.1737 3.71334 5.77246C4.32816 7.12829 5.37811 8.05741 6.73852 8.66229C7.23175 8.88252 7.70358 8.86111 8.04081 8.36099C8.63958 7.47011 9.37599 7.51294 10.1805 8.06658C10.5827 8.34341 10.9933 8.61564 11.3765 8.91693Z" fill="white"/>
</g>
</svg>
