<svg width="63" height="60" viewBox="0 0 63 60" fill="none" xmlns="http://www.w3.org/2000/svg">
<path fill-rule="evenodd" clip-rule="evenodd" d="M41.4928 7.19311C41.3335 6.91179 41.1071 6.69758 40.8136 6.54999C40.52 6.40239 40.1991 6.29739 39.8506 6.23573C39.5026 6.17407 39.0941 6.14311 38.627 6.14311H36.2533V10.3144H38.627C39.5919 10.3144 40.3508 10.1618 40.9032 9.85748C41.4551 9.55214 41.7311 9.00956 41.7311 8.2285C41.7311 7.81915 41.6517 7.47394 41.4928 7.19311ZM38.5673 5C41.5226 5 43 6.076 43 8.2285C43 10.381 41.5226 11.4572 38.5673 11.4572H36.2533V15H35V5H38.5673Z" fill="white"/>
<path fill-rule="evenodd" clip-rule="evenodd" d="M46.147 9.91457H48.7954C49.4689 9.91457 50.031 9.76896 50.4811 9.47898C50.9319 9.18825 51.1572 8.70487 51.1572 8.02907C51.1572 7.34288 50.9319 6.85702 50.4811 6.57199C50.031 6.28597 49.4689 6.14333 48.7954 6.14333H46.147V9.91457ZM45 15V5H48.741C49.3686 5 49.9375 5.08816 50.4472 5.26447C50.957 5.44054 51.396 5.7647 51.7644 6.23595C52.1334 6.70769 52.3177 7.30499 52.3177 8.02907C52.3177 8.88614 52.0811 9.55228 51.6075 10.0287C51.1345 10.5052 50.5201 10.8142 49.765 10.9576L53 15H51.5668L48.4404 11.0569H46.147V15H45Z" fill="white"/>
<mask id="mask0" mask-type="alpha" maskUnits="userSpaceOnUse" x="53" y="5" width="10" height="10">
<path fill-rule="evenodd" clip-rule="evenodd" d="M53.178 5.11786H62.7752V14.8304H53.178V5.11786Z" fill="white"/>
</mask>
<g mask="url(#mask0)">
<path fill-rule="evenodd" clip-rule="evenodd" d="M61.4316 8.56553C61.2782 8.11856 61.0555 7.71623 60.7625 7.35809C60.4703 7.00042 60.0832 6.71646 59.6023 6.50646C59.1216 6.29577 58.5798 6.19088 57.9768 6.19088C57.3734 6.19088 56.8316 6.29577 56.3512 6.50646C55.87 6.71646 55.4837 7.00042 55.1907 7.35809C54.8978 7.71623 54.675 8.11856 54.5221 8.56553C54.3687 9.01274 54.2923 9.48251 54.2923 9.97437C54.2923 10.4665 54.3687 10.9355 54.5221 11.383C54.675 11.8304 54.8978 12.2325 55.1907 12.5906C55.4837 12.9483 55.87 13.232 56.3512 13.442C56.8316 13.6525 57.3734 13.7576 57.9768 13.7576C58.5798 13.7576 59.1216 13.6525 59.6023 13.442C60.0832 13.232 60.4703 12.9483 60.7625 12.5906C61.0555 12.2325 61.2782 11.8304 61.4316 11.383C61.5846 10.9355 61.6609 10.4665 61.6609 9.97437C61.6609 9.48251 61.5846 9.01274 61.4316 8.56553ZM53.4864 8.18972C53.6916 7.61763 53.9866 7.10088 54.3714 6.64042C54.7557 6.17995 55.258 5.81065 55.8791 5.53344C56.4996 5.25623 57.1987 5.11786 57.9768 5.11786C58.7546 5.11786 59.4537 5.25623 60.0746 5.53344C60.6953 5.81065 61.1975 6.17995 61.5823 6.64042C61.9666 7.10088 62.2616 7.61763 62.4675 8.18972C62.6725 8.76251 62.7753 9.35716 62.7753 9.97437C62.7753 10.5911 62.6725 11.1862 62.4675 11.7586C62.2616 12.3306 61.9666 12.8476 61.5823 13.3081C61.1975 13.7686 60.6953 14.1376 60.0746 14.4148C59.4537 14.6923 58.7546 14.8304 57.9768 14.8304C57.1987 14.8304 56.4996 14.6923 55.8791 14.4148C55.258 14.1376 54.7557 13.7686 54.3714 13.3081C53.9866 12.8476 53.6916 12.3306 53.4864 11.7586C53.2805 11.1862 53.178 10.5911 53.178 9.97437C53.178 9.35716 53.2805 8.76251 53.4864 8.18972Z" fill="white"/>
</g>
<path fill-rule="evenodd" clip-rule="evenodd" d="M27.9274 37.646L33.7275 43L44 27.3042V20H32.5329C32.3976 20.2477 27 28.4465 27 28.4465H33.962L27.9274 37.646Z" fill="#FBAC25"/>
<path fill-rule="evenodd" clip-rule="evenodd" d="M39.5129 37L38.9463 37.7421L34.822 43.6733L34.8215 43.6735C35.6475 44.4685 36.0399 45.5459 36.0399 46.7355C36.0399 49.1731 34.416 51.1571 30.72 51.1571C27.3038 51.1571 25.6238 49.5697 24.7281 46.9624L17 51.497C19.408 57.3358 24.784 60 30.72 60C38.2799 60 45 55.4652 45 46.7355C45 42.3998 42.8015 39.0566 39.5129 37Z" fill="#FBAC25"/>
<mask id="mask1" mask-type="alpha" maskUnits="userSpaceOnUse" x="0" y="0" width="28" height="40">
<path fill-rule="evenodd" clip-rule="evenodd" d="M0.00012207 0.209015H27.8885V39.8846H0.00012207V0.209015Z" fill="white"/>
</mask>
<g mask="url(#mask1)">
<path fill-rule="evenodd" clip-rule="evenodd" d="M13.9443 0.208984C5.68497 0.208984 0.00012207 5.8769 0.00012207 13.934C0.00012207 20.3281 3.60936 25.2494 9.23524 26.9835L14.4532 19.3028C14.2852 19.3162 14.1157 19.3244 13.9443 19.3244C11.1017 19.3244 8.58106 17.3241 8.58106 13.934C8.58106 10.5446 11.1017 8.54415 13.9443 8.54415C15.4809 8.54415 16.8926 9.09646 17.8832 10.1255C18.3306 10.5301 18.7302 11.0024 19.0287 11.5033C19.8108 12.8158 19.8044 14.1347 19.7951 14.6798C19.7601 16.7154 18.7981 18.1452 18.4146 18.6587L4.10976 39.8846H13.6563L25.6899 21.8248C27.084 19.6576 27.8885 16.9349 27.8885 13.934C27.8885 5.8769 22.2574 0.208984 13.9443 0.208984Z" fill="#FBAC25"/>
</g>
</svg>
