<svg width="20" height="29" viewBox="0 0 20 29" fill="none" xmlns="http://www.w3.org/2000/svg">
<path fill-rule="evenodd" clip-rule="evenodd" d="M19.1824 6.3276C19.312 6.61412 19.4498 6.91883 19.5275 7.20924C19.53 7.21697 19.5367 7.23644 19.5467 7.26559C19.6373 7.52919 20.0001 8.58436 20 8.9086V10.2731C20 12.6847 18.4453 15.1233 16.8923 17.5594C16.3063 18.4786 15.7205 19.3975 15.2185 20.3144C15.1272 20.4843 14.9807 20.6607 14.8316 20.8403C14.6868 21.0148 14.5394 21.1923 14.4377 21.3698C14.3118 21.5896 14.1779 21.8135 14.0424 22.04C13.8444 22.371 13.6432 22.7073 13.4595 23.0438C12.8464 24.0869 12.2268 25.1525 11.6035 26.2245C11.0729 27.137 10.5397 28.054 10.0056 28.9655C9.73492 28.5289 9.46383 28.0923 9.19264 27.6556C7.57688 25.0533 5.95732 22.4449 4.38835 19.7996C4.03995 19.2098 3.66739 18.6123 3.29204 18.0104C1.83252 15.67 0.330806 13.2619 0.0431315 10.9684C0.0178196 10.7366 0 10.2732 0 10.2216V8.9855C0.64515 2.93525 5.47743 0 9.8649 0C13.1424 0 17.2014 1.59632 19.0591 6.05059C19.0976 6.14015 19.1396 6.23288 19.1824 6.3276ZM6.54708 10.9942C7.24387 12.771 8.65553 13.4144 9.94522 13.4144C12.0099 13.4144 13.7179 11.7669 13.7179 9.70709C13.7179 7.64718 12.1211 5.99914 10.0565 5.99914C8.3794 5.99914 6.45164 7.02923 6.45164 9.29441V10.0926C6.45164 10.0951 6.45162 10.0988 6.45159 10.1037C6.45109 10.1989 6.44831 10.7251 6.54708 10.9942Z" fill="#F5A623"/>
</svg>
